final project - Results
…
NEON_metagenomes_select_WOOD %>% 
  left_join(NEON_MAGs_select_WOOD, by = "Sample Name")

# A tibble: 3,940 × 95
   `Bin ID`      Site.x       `Sample Name` `Site ID.x` Subplot.x Layer.x Date.x
   <chr>         <chr>        <chr>         <chr>       <chr>     <chr>   <chr> 
 1 3300060657_10 Chase Lake … WOOD_024-M-2… WOOD        024       M       20210…
 2 3300060885_74 Chase Lake … WOOD_004-M-2… WOOD        004       M       20210…
 3 3300060885_74 Chase Lake … WOOD_004-M-2… WOOD        004       M       20210…
 4 3300060885_74 Chase Lake … WOOD_004-M-2… WOOD        004       M       20210…
 5 3300060885_74 Chase Lake … WOOD_004-M-2… WOOD        004       M       20210…
 6 3300060885_74 Chase Lake … WOOD_004-M-2… WOOD        004       M       20210…
 7 3300060885_74 Chase Lake … WOOD_004-M-2… WOOD        004       M       20210…
 8 3300060885_74 Chase Lake … WOOD_004-M-2… WOOD        004       M       20210…
 9 3300060885_74 Chase Lake … WOOD_004-M-2… WOOD        004       M       20210…
10 3300060885_74 Chase Lake … WOOD_004-M-2… WOOD        004       M       20210…
# ℹ 3,930 more rows
# ℹ 88 more variables: `IMG Genome ID.x` <dbl>, `Bin Quality` <chr>,
#   `Bin Lineage` <chr>, `GTDB-Tk Taxonomy Lineage.x` <chr>, Domain.x <chr>,
#   Phylum <chr>, Class <chr>, Order <chr>, Family <chr>, Genus <chr>,
#   `Bin Completeness` <dbl>, `Bin Contamination` <dbl>,
#   `Total Number of Bases` <dbl>, `5s rRNA` <dbl>, `16s rRNA` <dbl>,
#   `23s rRNA` <dbl>, `tRNA Genes` <dbl>, `Gene Count` <dbl>, …
…
